<?xml version="1.0" encoding="utf-8"?>
<!-- Generator: Adobe Illustrator 23.1.0, SVG Export Plug-In . SVG Version: 6.00 Build 0)  -->
<svg version="1.1" id="Слой_1" xmlns="http://www.w3.org/2000/svg" xmlns:xlink="http://www.w3.org/1999/xlink" x="0px" y="0px"
	 viewBox="0 0 30 23" style="enable-background:new 0 0 30 23;" xml:space="preserve">
<style type="text/css">
	.st0{fill-rule:evenodd;clip-rule:evenodd;}
</style>
<g transform="translate(0 4)">
	<g>
		<path id="prefix__a" class="st0" d="M12,14.8c-1.1,0-2,1-2,2.1c0,1.2,0.9,2.1,2,2.1c1.1,0,2-1,2-2.1C14.1,15.7,13.1,14.8,12,14.8
			 M24.4,14.8c-1.1,0-2,1-2,2.1c0,1.2,0.9,2.1,2,2.1c1.1,0,2-1,2-2.1C26.4,15.7,25.5,14.8,24.4,14.8 M5.8-4c0.5,0,0.9,0.3,1,0.8
			l0.7,2.6l21.5,0c0.3,0,0.6,0.1,0.8,0.4C30,0,30,0.4,30,0.7l-2.5,11c-0.1,0.5-0.5,0.8-1,0.8h-17c-0.5,0-0.9-0.3-1-0.8l-2.8-11
			c0,0,0,0,0,0L5.1-1.9H1c-0.6,0-1-0.5-1-1.1C0-3.5,0.5-4,1-4H5.8z"/>
	</g>
</g>
</svg>
