<?xml version="1.0" encoding="utf-8"?>
<!-- Generator: Adobe Illustrator 23.1.0, SVG Export Plug-In . SVG Version: 6.00 Build 0)  -->
<svg version="1.1" id="Слой_1" xmlns="http://www.w3.org/2000/svg" xmlns:xlink="http://www.w3.org/1999/xlink" x="0px" y="0px"
	 viewBox="0 0 99 58" style="enable-background:new 0 0 99 58;" xml:space="preserve">
<style type="text/css">
	.st0{fill-rule:evenodd;clip-rule:evenodd;fill:#6224FF;}
</style>
<g>
	<path class="st0" d="M39.4,43.5h30.2c3.4-10,17.7-9.9,21.1,0h2.5V29.1c0-1.8-1.5-3.3-3.3-3.3H67.7c-1.6,0-2.9-1.3-2.9-2.9V5.7H15.1
		v3.4h5.3c3.8,0,3.8,5.7,0,5.7h-5.3v5.5H29c3.8,0,3.8,5.7,0,5.7H15.1v17.2h3.3C21.8,33.5,36,33.6,39.4,43.5L39.4,43.5z M65.4,0
		c7.9,0,14.9,3.9,18.9,10.7l5.7,9.4c5,0.1,9,4.1,9,9v17.2c0,1.6-1.3,2.9-2.9,2.9H91c-1,5.1-5.6,8.8-10.9,8.8s-9.9-3.7-10.9-8.8H39.8
		c-1,5.1-5.6,8.8-10.9,8.8c-5.3,0-9.9-3.7-10.9-8.8h-5.8c-1.6,0-2.9-1.3-2.9-2.9v-8.6H2.9C-1,37.7-1,32,2.9,32h6.4v-5.7H2.9
		c-3.8,0-3.8-5.7,0-5.7h6.4v-5.6H5.8c-3.8,0-3.8-5.7,0-5.7h3.5V2.9c0-1.6,1.3-2.9,2.9-2.9h4.2C29.3,0,65.4,0,65.4,0z M83.9,43.3
		c-3.3-3.3-9.1-1-9.1,3.7c0,4.7,5.7,7,9.1,3.7C86,48.7,86,45.3,83.9,43.3z M32.6,43.3c-3.3-3.3-9.1-1-9.1,3.7c0,4.7,5.7,7,9.1,3.7
		C34.7,48.7,34.7,45.3,32.6,43.3z M71,7v13h12l-3.7-6.2C77.4,10.5,74.5,8.1,71,7z"/>
</g>
</svg>
