<svg xmlns="http://www.w3.org/2000/svg" width="30" height="31" viewBox="0 0 30 31">
    <path fill-rule="evenodd" d="M17.06 27.996v-10.16h10.117c.553 0 1-.448 1-1v-1.618c0-.553-.447-1-1-1H17.06V3.996c0-.552-.447-1-1-1h-1.765c-.553 0-1 .448-1 1v10.222H3.178c-.553 0-1 .447-1 1v1.618c0 .552.447 1 1 1h10.117v10.16c0 .552.447 1 1 1h1.765c.553 0 1-.448 1-1z"/>
</svg>
